<?xml version="1.0" encoding="utf-8"?>
<COLLADA xmlns="http://www.collada.org/2005/11/COLLADASchema" version="1.4.1" xmlns:xsi="http://www.w3.org/2001/XMLSchema-instance">
  <asset>
    <contributor>
      <author>Blender User</author>
      <authoring_tool>Blender 2.80.75 commit date:2019-07-29, commit time:14:47, hash:f6cb5f54494e</authoring_tool>
    </contributor>
    <created>2019-08-26T23:11:43</created>
    <modified>2019-08-26T23:11:43</modified>
    <unit name="meter" meter="1"/>
    <up_axis>Z_UP</up_axis>
  </asset>
  <library_images/>
  <library_geometries>
    <geometry id="Cube_012-mesh" name="Cube.012">
      <mesh>
        <source id="Cube_012-mesh-positions">
          <float_array id="Cube_012-mesh-positions-array" count="24">0 -1 -0.3 0 -1 0 0 0 -0.3 0 0 0 1 -1 -0.3 1 -1 0 1 0 -0.3 1 0 0</float_array>
          <technique_common>
            <accessor source="#Cube_012-mesh-positions-array" count="8" stride="3">
              <param name="X" type="float"/>
              <param name="Y" type="float"/>
              <param name="Z" type="float"/>
            </accessor>
          </technique_common>
        </source>
        <source id="Cube_012-mesh-normals">
          <float_array id="Cube_012-mesh-normals-array" count="18">-1 0 0 0 1 0 1 0 0 0 -1 0 0 0 -1 0 0 1</float_array>
          <technique_common>
            <accessor source="#Cube_012-mesh-normals-array" count="6" stride="3">
              <param name="X" type="float"/>
              <param name="Y" type="float"/>
              <param name="Z" type="float"/>
            </accessor>
          </technique_common>
        </source>
        <source id="Cube_012-mesh-map-0">
          <float_array id="Cube_012-mesh-map-0-array" count="48">0.5 0.5 0.6153665 0.5 0.6153665 0.8845552 0.5 0.8845552 0.5 0.8845552 0.5 0.9999216 0.1154449 0.9999216 0.1154449 0.8845551 0.1154449 0.8845551 7.84342e-5 0.8845551 7.84342e-5 0.5 0.115445 0.5000001 0.115445 0.5000001 0.1154449 0.3846336 0.5 0.3846335 0.5 0.5 0.5 0.8845552 0.1154449 0.8845551 0.115445 0.5000001 0.5 0.5 0.115445 7.86027e-5 0.5 7.84342e-5 0.5 0.3846335 0.1154449 0.3846336</float_array>
          <technique_common>
            <accessor source="#Cube_012-mesh-map-0-array" count="24" stride="2">
              <param name="S" type="float"/>
              <param name="T" type="float"/>
            </accessor>
          </technique_common>
        </source>
        <vertices id="Cube_012-mesh-vertices">
          <input semantic="POSITION" source="#Cube_012-mesh-positions"/>
        </vertices>
        <polylist count="6">
          <input semantic="VERTEX" source="#Cube_012-mesh-vertices" offset="0"/>
          <input semantic="NORMAL" source="#Cube_012-mesh-normals" offset="1"/>
          <input semantic="TEXCOORD" source="#Cube_012-mesh-map-0" offset="2" set="0"/>
          <vcount>4 4 4 4 4 4 </vcount>
          <p>0 0 0 1 0 1 3 0 2 2 0 3 2 1 4 3 1 5 7 1 6 6 1 7 6 2 8 7 2 9 5 2 10 4 2 11 4 3 12 5 3 13 1 3 14 0 3 15 2 4 16 6 4 17 4 4 18 0 4 19 7 5 20 3 5 21 1 5 22 5 5 23</p>
        </polylist>
      </mesh>
    </geometry>
    <geometry id="Cube_011-mesh" name="Cube.011">
      <mesh>
        <source id="Cube_011-mesh-positions">
          <float_array id="Cube_011-mesh-positions-array" count="24">0 -4 -0.2 0 -4 0 0 0 -0.2 0 0 0 4 -4 -0.2 4 -4 0 4 0 -0.2 4 0 0</float_array>
          <technique_common>
            <accessor source="#Cube_011-mesh-positions-array" count="8" stride="3">
              <param name="X" type="float"/>
              <param name="Y" type="float"/>
              <param name="Z" type="float"/>
            </accessor>
          </technique_common>
        </source>
        <source id="Cube_011-mesh-normals">
          <float_array id="Cube_011-mesh-normals-array" count="18">-1 0 0 0 1 0 1 0 0 0 -1 0 0 0 -1 0 0 1</float_array>
          <technique_common>
            <accessor source="#Cube_011-mesh-normals-array" count="6" stride="3">
              <param name="X" type="float"/>
              <param name="Y" type="float"/>
              <param name="Z" type="float"/>
            </accessor>
          </technique_common>
        </source>
        <source id="Cube_011-mesh-map-0">
          <float_array id="Cube_011-mesh-map-0-array" count="48">0.4999999 0.5 0.523806 0.5 0.523806 0.9761216 0.5000001 0.9761216 0.5000001 0.9761216 0.5000001 0.9999277 0.02387851 0.9999277 0.02387851 0.9761219 0.02387851 0.9761219 7.23642e-5 0.9761219 7.24064e-5 0.5000001 0.02387827 0.5000001 0.02387827 0.5000001 0.02387827 0.476194 0.4999999 0.476194 0.4999999 0.5 0.5000001 0.9761216 0.02387851 0.9761219 0.02387827 0.5000001 0.4999999 0.5 0.02387827 7.24485e-5 0.5 7.23642e-5 0.4999999 0.476194 0.02387827 0.476194</float_array>
          <technique_common>
            <accessor source="#Cube_011-mesh-map-0-array" count="24" stride="2">
              <param name="S" type="float"/>
              <param name="T" type="float"/>
            </accessor>
          </technique_common>
        </source>
        <vertices id="Cube_011-mesh-vertices">
          <input semantic="POSITION" source="#Cube_011-mesh-positions"/>
        </vertices>
        <polylist count="6">
          <input semantic="VERTEX" source="#Cube_011-mesh-vertices" offset="0"/>
          <input semantic="NORMAL" source="#Cube_011-mesh-normals" offset="1"/>
          <input semantic="TEXCOORD" source="#Cube_011-mesh-map-0" offset="2" set="0"/>
          <vcount>4 4 4 4 4 4 </vcount>
          <p>0 0 0 1 0 1 3 0 2 2 0 3 2 1 4 3 1 5 7 1 6 6 1 7 6 2 8 7 2 9 5 2 10 4 2 11 4 3 12 5 3 13 1 3 14 0 3 15 2 4 16 6 4 17 4 4 18 0 4 19 7 5 20 3 5 21 1 5 22 5 5 23</p>
        </polylist>
      </mesh>
    </geometry>
    <geometry id="Cube_010-mesh" name="Cube.010">
      <mesh>
        <source id="Cube_010-mesh-positions">
          <float_array id="Cube_010-mesh-positions-array" count="24">0 -2 -0.2 0 -2 0 0 0 -0.2 0 0 0 2 -2 -0.2 2 -2 0 2 0 -0.2 2 0 0</float_array>
          <technique_common>
            <accessor source="#Cube_010-mesh-positions-array" count="8" stride="3">
              <param name="X" type="float"/>
              <param name="Y" type="float"/>
              <param name="Z" type="float"/>
            </accessor>
          </technique_common>
        </source>
        <source id="Cube_010-mesh-normals">
          <float_array id="Cube_010-mesh-normals-array" count="18">-1 0 0 0 1 0 1 0 0 0 -1 0 0 0 -1 0 0 1</float_array>
          <technique_common>
            <accessor source="#Cube_010-mesh-normals-array" count="6" stride="3">
              <param name="X" type="float"/>
              <param name="Y" type="float"/>
              <param name="Z" type="float"/>
            </accessor>
          </technique_common>
        </source>
        <source id="Cube_010-mesh-map-0">
          <float_array id="Cube_010-mesh-map-0-array" count="48">0.5000001 0.5000001 0.545448 0.5000001 0.545448 0.9544783 0.4999999 0.9544784 0.4999999 0.9544784 0.4999998 0.9999262 0.04552161 0.9999262 0.04552161 0.9544782 0.04552161 0.9544782 7.3844e-5 0.9544782 7.3844e-5 0.5 0.04552185 0.5 0.04552185 0.5 0.04552191 0.4545521 0.5000001 0.4545521 0.5000001 0.5000001 0.4999999 0.9544784 0.04552161 0.9544782 0.04552185 0.5 0.5000001 0.5000001 0.04552191 7.3844e-5 0.5000001 7.3844e-5 0.5000001 0.4545521 0.04552191 0.4545521</float_array>
          <technique_common>
            <accessor source="#Cube_010-mesh-map-0-array" count="24" stride="2">
              <param name="S" type="float"/>
              <param name="T" type="float"/>
            </accessor>
          </technique_common>
        </source>
        <vertices id="Cube_010-mesh-vertices">
          <input semantic="POSITION" source="#Cube_010-mesh-positions"/>
        </vertices>
        <polylist count="6">
          <input semantic="VERTEX" source="#Cube_010-mesh-vertices" offset="0"/>
          <input semantic="NORMAL" source="#Cube_010-mesh-normals" offset="1"/>
          <input semantic="TEXCOORD" source="#Cube_010-mesh-map-0" offset="2" set="0"/>
          <vcount>4 4 4 4 4 4 </vcount>
          <p>0 0 0 1 0 1 3 0 2 2 0 3 2 1 4 3 1 5 7 1 6 6 1 7 6 2 8 7 2 9 5 2 10 4 2 11 4 3 12 5 3 13 1 3 14 0 3 15 2 4 16 6 4 17 4 4 18 0 4 19 7 5 20 3 5 21 1 5 22 5 5 23</p>
        </polylist>
      </mesh>
    </geometry>
    <geometry id="Cube_009-mesh" name="Cube.009">
      <mesh>
        <source id="Cube_009-mesh-positions">
          <float_array id="Cube_009-mesh-positions-array" count="192">0 0 0 0 0 0.2 0 0.3 0 0 0.3 0.2 2 0 0 2 0 0.2 2 0.3 0 2 0.3 0.2 0 0.3 0.2 0 0.3 0.4 0 0.6 0.2 0 0.6 0.4 2 0.3 0.2 2 0.3 0.4 2 0.6 0.2 2 0.6 0.4 0 0.6 0.4 0 0.6 0.6 0 0.9 0.4 0 0.9 0.6 2 0.6 0.4 2 0.6 0.6 2 0.9 0.4 2 0.9 0.6 0 0.9 0.6 0 0.9 0.8 0 1.2 0.6 0 1.2 0.8 2 0.9 0.6 2 0.9 0.8 2 1.2 0.6 2 1.2 0.8 0 1.2 0.8 0 1.2 1 0 1.5 0.8 0 1.5 1 2 1.2 0.8 2 1.2 1 2 1.5 0.8 2 1.5 1 0 1.5 1 0 1.5 1.2 0 1.8 1 0 1.8 1.2 2 1.5 1 2 1.5 1.2 2 1.8 1 2 1.8 1.2 0 1.8 1.2 0 1.8 1.4 0 2.1 1.2 0 2.1 1.4 2 1.8 1.2 2 1.8 1.4 2 2.1 1.2 2 2.1 1.4 0 2.1 1.4 0 2.1 1.6 0 2.4 1.4 0 2.4 1.6 2 2.1 1.4 2 2.1 1.6 2 2.4 1.4 2 2.4 1.6</float_array>
          <technique_common>
            <accessor source="#Cube_009-mesh-positions-array" count="64" stride="3">
              <param name="X" type="float"/>
              <param name="Y" type="float"/>
              <param name="Z" type="float"/>
            </accessor>
          </technique_common>
        </source>
        <source id="Cube_009-mesh-normals">
          <float_array id="Cube_009-mesh-normals-array" count="18">-1 0 0 0 1 0 1 0 0 0 -1 0 0 0 -1 0 0 1</float_array>
          <technique_common>
            <accessor source="#Cube_009-mesh-normals-array" count="6" stride="3">
              <param name="X" type="float"/>
              <param name="Y" type="float"/>
              <param name="Z" type="float"/>
            </accessor>
          </technique_common>
        </source>
        <source id="Cube_009-mesh-map-0">
          <float_array id="Cube_009-mesh-map-0-array" count="384">0.2758886 5.87152e-5 0.2758886 0.06901621 0.1724523 0.06901621 0.1724523 5.87152e-5 0.1034949 0.06901615 0.1724523 0.06901621 0.1724525 0.9309837 0.103495 0.9309839 0.1724525 0.9999412 0.1724525 0.9309837 0.2758887 0.9309839 0.2758887 0.9999413 0.3448461 0.9309837 0.2758887 0.9309839 0.2758886 0.06901621 0.3448461 0.06901615 0.1034949 0.06901615 0.103495 0.9309839 5.87824e-5 0.9309838 5.87152e-5 0.06901615 0.1724525 0.9309837 0.1724523 0.06901621 0.2758886 0.06901621 0.2758887 0.9309839 0.2758886 5.87152e-5 0.2758886 0.06901621 0.1724523 0.06901621 0.1724523 5.87152e-5 0.1034949 0.06901615 0.1724523 0.06901621 0.1724525 0.9309837 0.103495 0.9309839 0.1724525 0.9999412 0.1724525 0.9309837 0.2758887 0.9309839 0.2758887 0.9999413 0.3448461 0.9309837 0.2758887 0.9309839 0.2758886 0.06901621 0.3448461 0.06901615 0.1034949 0.06901615 0.103495 0.9309839 5.87824e-5 0.9309838 5.87152e-5 0.06901615 0.1724525 0.9309837 0.1724523 0.06901621 0.2758886 0.06901621 0.2758887 0.9309839 0.2758886 5.87152e-5 0.2758886 0.06901621 0.1724523 0.06901621 0.1724523 5.87152e-5 0.1034949 0.06901615 0.1724523 0.06901621 0.1724525 0.9309837 0.103495 0.9309839 0.1724525 0.9999412 0.1724525 0.9309837 0.2758887 0.9309839 0.2758887 0.9999413 0.3448461 0.9309837 0.2758887 0.9309839 0.2758886 0.06901621 0.3448461 0.06901615 0.1034949 0.06901615 0.103495 0.9309839 5.87824e-5 0.9309838 5.87152e-5 0.06901615 0.1724525 0.9309837 0.1724523 0.06901621 0.2758886 0.06901621 0.2758887 0.9309839 0.2758886 5.87152e-5 0.2758886 0.06901621 0.1724523 0.06901621 0.1724523 5.87152e-5 0.1034949 0.06901615 0.1724523 0.06901621 0.1724525 0.9309837 0.103495 0.9309839 0.1724525 0.9999412 0.1724525 0.9309837 0.2758887 0.9309839 0.2758887 0.9999413 0.3448461 0.9309837 0.2758887 0.9309839 0.2758886 0.06901621 0.3448461 0.06901615 0.1034949 0.06901615 0.103495 0.9309839 5.87824e-5 0.9309838 5.87152e-5 0.06901615 0.1724525 0.9309837 0.1724523 0.06901621 0.2758886 0.06901621 0.2758887 0.9309839 0.2758886 5.87152e-5 0.2758886 0.06901621 0.1724523 0.06901621 0.1724523 5.87152e-5 0.1034949 0.06901615 0.1724523 0.06901621 0.1724525 0.9309837 0.103495 0.9309839 0.1724525 0.9999412 0.1724525 0.9309837 0.2758887 0.9309839 0.2758887 0.9999413 0.3448461 0.9309837 0.2758887 0.9309839 0.2758886 0.06901621 0.3448461 0.06901615 0.1034949 0.06901615 0.103495 0.9309839 5.87824e-5 0.9309838 5.87152e-5 0.06901615 0.1724525 0.9309837 0.1724523 0.06901621 0.2758886 0.06901621 0.2758887 0.9309839 0.2758886 5.87152e-5 0.2758886 0.06901621 0.1724523 0.06901621 0.1724523 5.87152e-5 0.1034949 0.06901615 0.1724523 0.06901621 0.1724525 0.9309837 0.103495 0.9309839 0.1724525 0.9999412 0.1724525 0.9309837 0.2758887 0.9309839 0.2758887 0.9999413 0.3448461 0.9309837 0.2758887 0.9309839 0.2758886 0.06901621 0.3448461 0.06901615 0.1034949 0.06901615 0.103495 0.9309839 5.87824e-5 0.9309838 5.87152e-5 0.06901615 0.1724525 0.9309837 0.1724523 0.06901621 0.2758886 0.06901621 0.2758887 0.9309839 0.2758886 5.87152e-5 0.2758886 0.06901621 0.1724523 0.06901621 0.1724523 5.87152e-5 0.1034949 0.06901615 0.1724523 0.06901621 0.1724525 0.9309837 0.103495 0.9309839 0.1724525 0.9999412 0.1724525 0.9309837 0.2758887 0.9309839 0.2758887 0.9999413 0.3448461 0.9309837 0.2758887 0.9309839 0.2758886 0.06901621 0.3448461 0.06901615 0.1034949 0.06901615 0.103495 0.9309839 5.87824e-5 0.9309838 5.87152e-5 0.06901615 0.1724525 0.9309837 0.1724523 0.06901621 0.2758886 0.06901621 0.2758887 0.9309839 0.2758886 5.87152e-5 0.2758886 0.06901621 0.1724523 0.06901621 0.1724523 5.87152e-5 0.1034949 0.06901615 0.1724523 0.06901621 0.1724525 0.9309837 0.103495 0.9309839 0.1724525 0.9999412 0.1724525 0.9309837 0.2758887 0.9309839 0.2758887 0.9999413 0.3448461 0.9309837 0.2758887 0.9309839 0.2758886 0.06901621 0.3448461 0.06901615 0.1034949 0.06901615 0.103495 0.9309839 5.87824e-5 0.9309838 5.87152e-5 0.06901615 0.1724525 0.9309837 0.1724523 0.06901621 0.2758886 0.06901621 0.2758887 0.9309839</float_array>
          <technique_common>
            <accessor source="#Cube_009-mesh-map-0-array" count="192" stride="2">
              <param name="S" type="float"/>
              <param name="T" type="float"/>
            </accessor>
          </technique_common>
        </source>
        <vertices id="Cube_009-mesh-vertices">
          <input semantic="POSITION" source="#Cube_009-mesh-positions"/>
        </vertices>
        <polylist count="48">
          <input semantic="VERTEX" source="#Cube_009-mesh-vertices" offset="0"/>
          <input semantic="NORMAL" source="#Cube_009-mesh-normals" offset="1"/>
          <input semantic="TEXCOORD" source="#Cube_009-mesh-map-0" offset="2" set="0"/>
          <vcount>4 4 4 4 4 4 4 4 4 4 4 4 4 4 4 4 4 4 4 4 4 4 4 4 4 4 4 4 4 4 4 4 4 4 4 4 4 4 4 4 4 4 4 4 4 4 4 4 </vcount>
          <p>0 0 0 1 0 1 3 0 2 2 0 3 2 1 4 3 1 5 7 1 6 6 1 7 6 2 8 7 2 9 5 2 10 4 2 11 4 3 12 5 3 13 1 3 14 0 3 15 2 4 16 6 4 17 4 4 18 0 4 19 7 5 20 3 5 21 1 5 22 5 5 23 8 0 24 9 0 25 11 0 26 10 0 27 10 1 28 11 1 29 15 1 30 14 1 31 14 2 32 15 2 33 13 2 34 12 2 35 12 3 36 13 3 37 9 3 38 8 3 39 10 4 40 14 4 41 12 4 42 8 4 43 15 5 44 11 5 45 9 5 46 13 5 47 16 0 48 17 0 49 19 0 50 18 0 51 18 1 52 19 1 53 23 1 54 22 1 55 22 2 56 23 2 57 21 2 58 20 2 59 20 3 60 21 3 61 17 3 62 16 3 63 18 4 64 22 4 65 20 4 66 16 4 67 23 5 68 19 5 69 17 5 70 21 5 71 24 0 72 25 0 73 27 0 74 26 0 75 26 1 76 27 1 77 31 1 78 30 1 79 30 2 80 31 2 81 29 2 82 28 2 83 28 3 84 29 3 85 25 3 86 24 3 87 26 4 88 30 4 89 28 4 90 24 4 91 31 5 92 27 5 93 25 5 94 29 5 95 32 0 96 33 0 97 35 0 98 34 0 99 34 1 100 35 1 101 39 1 102 38 1 103 38 2 104 39 2 105 37 2 106 36 2 107 36 3 108 37 3 109 33 3 110 32 3 111 34 4 112 38 4 113 36 4 114 32 4 115 39 5 116 35 5 117 33 5 118 37 5 119 40 0 120 41 0 121 43 0 122 42 0 123 42 1 124 43 1 125 47 1 126 46 1 127 46 2 128 47 2 129 45 2 130 44 2 131 44 3 132 45 3 133 41 3 134 40 3 135 42 4 136 46 4 137 44 4 138 40 4 139 47 5 140 43 5 141 41 5 142 45 5 143 48 0 144 49 0 145 51 0 146 50 0 147 50 1 148 51 1 149 55 1 150 54 1 151 54 2 152 55 2 153 53 2 154 52 2 155 52 3 156 53 3 157 49 3 158 48 3 159 50 4 160 54 4 161 52 4 162 48 4 163 55 5 164 51 5 165 49 5 166 53 5 167 56 0 168 57 0 169 59 0 170 58 0 171 58 1 172 59 1 173 63 1 174 62 1 175 62 2 176 63 2 177 61 2 178 60 2 179 60 3 180 61 3 181 57 3 182 56 3 183 58 4 184 62 4 185 60 4 186 56 4 187 63 5 188 59 5 189 57 5 190 61 5 191</p>
        </polylist>
      </mesh>
    </geometry>
    <geometry id="Cube_008-mesh" name="Cube.008">
      <mesh>
        <source id="Cube_008-mesh-positions">
          <float_array id="Cube_008-mesh-positions-array" count="72">1 0.05000001 0 1 0.05000001 3.2 1 -0.04999995 0 1 -0.04999995 3.2 0 0.04999995 0 0 0.04999995 3.2 0 -0.05000001 0 0 -0.05000001 3.2 0.5 -0.04999995 0 0.5 -0.04999995 3.2 0.5 0.04999995 0 0.5 0.04999995 3.2 1 0.05000001 2.5 1 -0.04999995 2.5 0 -0.05000001 2.5 0 0.04999995 2.5 0.5 0.04999995 2.5 0.5 -0.04999995 2.5 1 -0.04999995 1 0 -0.05000001 1 0 0.04999995 1 0.5 0.04999995 1 0.5 -0.04999995 1 1 0.05000001 1</float_array>
          <technique_common>
            <accessor source="#Cube_008-mesh-positions-array" count="24" stride="3">
              <param name="X" type="float"/>
              <param name="Y" type="float"/>
              <param name="Z" type="float"/>
            </accessor>
          </technique_common>
        </source>
        <source id="Cube_008-mesh-normals">
          <float_array id="Cube_008-mesh-normals-array" count="27">1 0 0 0 -1 0 -1 0 0 0 1 0 0 0 -1 0 0 1 0 -1 0 0 1 0 0 0 1</float_array>
          <technique_common>
            <accessor source="#Cube_008-mesh-normals-array" count="9" stride="3">
              <param name="X" type="float"/>
              <param name="Y" type="float"/>
              <param name="Z" type="float"/>
            </accessor>
          </technique_common>
        </source>
        <source id="Cube_008-mesh-map-0">
          <float_array id="Cube_008-mesh-map-0-array" count="176">0.222446 0.1666997 0.222446 0.1111493 0.2335561 0.1111494 0.233556 0.1666995 0.05559915 0.2777997 0.05559915 0.3333499 4.90541e-5 0.3333499 4.90541e-5 0.2777997 0.233556 0.9444008 0.2335562 0.9999509 0.2224462 0.9999509 0.222446 0.9444008 0.1667975 0.2777997 0.1667975 0.3333498 0.1112474 0.3333498 0.1112474 0.2777997 0.2335558 0.5000007 0.2335557 0.5555509 0.2224457 0.5555509 0.2224457 0.5000007 0.2335562 0.05559921 0.2335561 0.1111494 0.222446 0.1111493 0.2224461 0.05559921 0.2335562 4.91375e-5 0.2335562 0.05559921 0.2224461 0.05559921 0.2224462 4.90264e-5 0.2335559 0.4444504 0.2335558 0.5000007 0.2224457 0.5000007 0.2224458 0.4444504 0.2223477 0.2777997 0.2223477 0.3333499 0.1667975 0.3333498 0.1667975 0.2777997 0.1111493 0.2777997 0.1111493 0.3333499 0.05559915 0.3333499 0.05559915 0.2777997 0.1111493 0.1111493 0.1111493 0.2777997 0.05559915 0.2777997 0.05559915 0.1111493 0.2224459 0.8888508 0.2335559 0.8888508 0.233556 0.9444008 0.222446 0.9444008 0.1667975 0.1111493 0.1667975 0.2777997 0.1112474 0.2777997 0.1112474 0.1111493 0.2224457 0.7222007 0.2335557 0.7222007 0.2335559 0.8888508 0.2224459 0.8888508 0.2224457 0.6666507 0.2335557 0.6666507 0.2335557 0.7222007 0.2224457 0.7222007 0.222446 0.33335 0.222446 0.1666997 0.233556 0.1666995 0.233556 0.33335 0.2224458 0.4444504 0.222446 0.33335 0.233556 0.33335 0.2335559 0.4444504 0.05559915 4.90264e-5 0.05559915 0.1111493 4.90264e-5 0.1111493 4.90264e-5 4.90394e-5 0.2335557 0.5555509 0.2335557 0.6666507 0.2224457 0.6666507 0.2224457 0.5555509 0.1667975 4.90264e-5 0.1667975 0.1111493 0.1112474 0.1111493 0.1112474 4.90402e-5 0.2223477 4.90333e-5 0.2223476 0.1111493 0.1667975 0.1111493 0.1667975 4.90264e-5 0.1111493 4.90281e-5 0.1111493 0.1111493 0.05559915 0.1111493 0.05559915 4.90264e-5</float_array>
          <technique_common>
            <accessor source="#Cube_008-mesh-map-0-array" count="88" stride="2">
              <param name="S" type="float"/>
              <param name="T" type="float"/>
            </accessor>
          </technique_common>
        </source>
        <vertices id="Cube_008-mesh-vertices">
          <input semantic="POSITION" source="#Cube_008-mesh-positions"/>
        </vertices>
        <polylist count="22">
          <input semantic="VERTEX" source="#Cube_008-mesh-vertices" offset="0"/>
          <input semantic="NORMAL" source="#Cube_008-mesh-normals" offset="1"/>
          <input semantic="TEXCOORD" source="#Cube_008-mesh-map-0" offset="2" set="0"/>
          <vcount>4 4 4 4 4 4 4 4 4 4 4 4 4 4 4 4 4 4 4 4 4 4 </vcount>
          <p>12 0 0 1 0 1 3 0 2 13 0 3 17 1 4 9 1 5 7 1 6 14 1 7 14 2 8 7 2 9 5 2 10 15 2 11 16 3 12 11 3 13 1 3 14 12 3 15 8 4 16 6 4 17 4 4 18 10 4 19 9 5 20 3 5 21 1 5 22 11 5 23 7 5 24 9 5 25 11 5 26 5 5 27 2 4 28 8 4 29 10 4 30 0 4 31 15 3 32 5 3 33 11 3 34 16 3 35 13 1 36 3 1 37 9 1 38 17 1 39 18 6 40 13 6 41 17 6 42 22 6 43 16 4 44 17 4 45 14 4 46 15 4 47 21 7 48 16 7 49 12 7 50 23 7 51 21 2 52 22 2 53 17 2 54 16 2 55 20 8 56 19 8 57 22 8 58 21 8 59 23 0 60 12 0 61 13 0 62 18 0 63 0 0 64 23 0 65 18 0 66 2 0 67 8 6 68 22 6 69 19 6 70 6 6 71 6 2 72 19 2 73 20 2 74 4 2 75 10 7 76 21 7 77 23 7 78 0 7 79 4 7 80 20 7 81 21 7 82 10 7 83 2 6 84 18 6 85 22 6 86 8 6 87</p>
        </polylist>
      </mesh>
    </geometry>
    <geometry id="Cube_007-mesh" name="Cube.007">
      <mesh>
        <source id="Cube_007-mesh-positions">
          <float_array id="Cube_007-mesh-positions-array" count="72">0 -0.04999995 0 0 -0.04999995 3.2 0 0.04999995 0 0 0.04999995 3.2 1 -0.04999995 0 1 -0.04999995 3.2 1 0.04999995 0 1 0.04999995 3.2 0.5 0.04999995 0 0.5 0.04999995 3.2 0.5 -0.04999995 0 0.5 -0.04999995 3.2 0 -0.04999995 2.5 0 0.04999995 2.5 1 0.04999995 2.5 1 -0.04999995 2.5 0.5 -0.04999995 2.5 0.5 0.04999995 2.5 0 0.04999995 1 1 0.04999995 1 1 -0.04999995 1 0.5 -0.04999995 1 0.5 0.04999995 1 0 -0.04999995 1</float_array>
          <technique_common>
            <accessor source="#Cube_007-mesh-positions-array" count="24" stride="3">
              <param name="X" type="float"/>
              <param name="Y" type="float"/>
              <param name="Z" type="float"/>
            </accessor>
          </technique_common>
        </source>
        <source id="Cube_007-mesh-normals">
          <float_array id="Cube_007-mesh-normals-array" count="18">-1 0 0 0 1 0 1 0 0 0 -1 0 0 0 -1 0 0 1</float_array>
          <technique_common>
            <accessor source="#Cube_007-mesh-normals-array" count="6" stride="3">
              <param name="X" type="float"/>
              <param name="Y" type="float"/>
              <param name="Z" type="float"/>
            </accessor>
          </technique_common>
        </source>
        <source id="Cube_007-mesh-map-0">
          <float_array id="Cube_007-mesh-map-0-array" count="160">0.3749355 0.5253776 0.2500003 0.5253776 0.2500003 0.5003907 0.3749355 0.5003907 0.2502604 0.1250652 0.3751956 0.1250652 0.3751955 0.2500002 0.2502604 0.2500002 0.3751955 0.4256898 0.2502604 0.4256898 0.2502604 0.4007028 0.3751955 0.4007028 0.3751954 0.2502604 0.3751954 0.3751955 0.2502604 0.3751955 0.2502604 0.2502604 0.5253778 0.6250651 0.5253778 0.7500005 0.5003907 0.7500005 0.5003907 0.6250651 0.1250652 0.5003907 0.2500003 0.5003907 0.2500003 0.5253776 0.1250652 0.5253776 1.30065e-4 0.5003907 0.1250652 0.5003907 0.1250652 0.5253776 1.30065e-4 0.5253776 0.5253778 0.5001297 0.5253778 0.6250651 0.5003907 0.6250651 0.5003907 0.5001297 0.5001305 0.2502604 0.5001305 0.3751955 0.3751954 0.3751955 0.3751954 0.2502604 0.2502604 1.30124e-4 0.3751955 1.30065e-4 0.3751956 0.1250652 0.2502604 0.1250652 0.3754557 0.1250651 0.3754557 1.30065e-4 0.4004427 1.30066e-4 0.4004427 0.1250651 0.5001305 0.4004427 0.3751955 0.4004427 0.3751955 0.3754556 0.5001305 0.3754556 0.4004427 0.1250651 0.4004427 0.2500002 0.3754557 0.2500002 0.3754557 0.1250651 0.2502604 0.3754556 0.3751955 0.3754556 0.3751955 0.4004427 0.2502604 0.4004427 0.5003907 0.5001297 0.5003907 0.2502604 0.5253777 0.2502604 0.5253778 0.5001297 1.3007e-4 0.1250651 0.2500002 0.1250652 0.2500002 0.2500002 1.30065e-4 0.2500002 0.5253778 0.7500005 0.5253778 0.99987 0.5003908 0.99987 0.5003907 0.7500005 0.2500002 0.3751955 1.3008e-4 0.3751955 1.30065e-4 0.2502604 0.2500002 0.2502604 0.2500002 0.5001305 1.30065e-4 0.5001305 1.3008e-4 0.3751955 0.2500002 0.3751955 1.30076e-4 1.30065e-4 0.2500002 1.30098e-4 0.2500002 0.1250652 1.3007e-4 0.1250651</float_array>
          <technique_common>
            <accessor source="#Cube_007-mesh-map-0-array" count="80" stride="2">
              <param name="S" type="float"/>
              <param name="T" type="float"/>
            </accessor>
          </technique_common>
        </source>
        <vertices id="Cube_007-mesh-vertices">
          <input semantic="POSITION" source="#Cube_007-mesh-positions"/>
        </vertices>
        <polylist count="20">
          <input semantic="VERTEX" source="#Cube_007-mesh-vertices" offset="0"/>
          <input semantic="NORMAL" source="#Cube_007-mesh-normals" offset="1"/>
          <input semantic="TEXCOORD" source="#Cube_007-mesh-map-0" offset="2" set="0"/>
          <vcount>4 4 4 4 4 4 4 4 4 4 4 4 4 4 4 4 4 4 4 4 </vcount>
          <p>12 0 0 1 0 1 3 0 2 13 0 3 17 1 4 9 1 5 7 1 6 14 1 7 14 2 8 7 2 9 5 2 10 15 2 11 16 3 12 11 3 13 1 3 14 12 3 15 8 4 16 6 4 17 4 4 18 10 4 19 9 5 20 3 5 21 1 5 22 11 5 23 7 5 24 9 5 25 11 5 26 5 5 27 2 4 28 8 4 29 10 4 30 0 4 31 15 3 32 5 3 33 11 3 34 16 3 35 13 1 36 3 1 37 9 1 38 17 1 39 22 5 40 18 5 41 23 5 42 21 5 43 13 4 44 17 4 45 16 4 46 12 4 47 21 5 48 20 5 49 19 5 50 22 5 51 15 4 52 16 4 53 17 4 54 14 4 55 0 0 56 23 0 57 18 0 58 2 0 59 8 1 60 22 1 61 19 1 62 6 1 63 6 2 64 19 2 65 20 2 66 4 2 67 10 3 68 21 3 69 23 3 70 0 3 71 4 3 72 20 3 73 21 3 74 10 3 75 2 1 76 18 1 77 22 1 78 8 1 79</p>
        </polylist>
      </mesh>
    </geometry>
    <geometry id="Cube_006-mesh" name="Cube.006">
      <mesh>
        <source id="Cube_006-mesh-positions">
          <float_array id="Cube_006-mesh-positions-array" count="72">0 -0.04999995 0 0 -0.04999995 3.2 0 0.04999995 0 0 0.04999995 3.2 1 -0.04999995 0 1 -0.04999995 3.2 1 0.04999995 0 1 0.04999995 3.2 0.5 0.04999995 0 0.5 0.04999995 3.2 0.5 -0.04999995 0 0.5 -0.04999995 3.2 0 -0.04999995 2.5 0 0.04999995 2.5 1 0.04999995 2.5 1 -0.04999995 2.5 0.5 -0.04999995 2.5 0.5 0.04999995 2.5 0 0.04999995 1 1 0.04999995 1 1 -0.04999995 1 0.5 -0.04999995 1 0.5 0.04999995 1 0 -0.04999995 1</float_array>
          <technique_common>
            <accessor source="#Cube_006-mesh-positions-array" count="24" stride="3">
              <param name="X" type="float"/>
              <param name="Y" type="float"/>
              <param name="Z" type="float"/>
            </accessor>
          </technique_common>
        </source>
        <source id="Cube_006-mesh-normals">
          <float_array id="Cube_006-mesh-normals-array" count="18">-1 0 0 0 1 0 1 0 0 0 -1 0 0 0 -1 0 0 1</float_array>
          <technique_common>
            <accessor source="#Cube_006-mesh-normals-array" count="6" stride="3">
              <param name="X" type="float"/>
              <param name="Y" type="float"/>
              <param name="Z" type="float"/>
            </accessor>
          </technique_common>
        </source>
        <source id="Cube_006-mesh-map-0">
          <float_array id="Cube_006-mesh-map-0-array" count="176">0.2224458 0.1666994 0.2224458 0.1111493 0.2335558 0.1111493 0.2335558 0.1666994 0.05559915 0.2777997 0.05559915 0.3333499 4.9054e-5 0.3333499 4.9054e-5 0.2777997 0.2335559 0.9444009 0.2335559 0.9999509 0.2224459 0.9999509 0.2224459 0.9444009 0.1667975 0.2777997 0.1667975 0.3333498 0.1112474 0.3333498 0.1112474 0.2777997 0.2335558 0.5 0.2335558 0.5555503 0.2224457 0.5555503 0.2224457 0.5 0.2335558 0.05559909 0.2335558 0.1111493 0.2224458 0.1111493 0.2224458 0.05559909 0.2335558 4.90262e-5 0.2335558 0.05559909 0.2224458 0.05559909 0.2224458 4.90262e-5 0.2335559 0.4444496 0.2335558 0.5 0.2224457 0.5 0.2224458 0.4444495 0.2223476 0.2777997 0.2223477 0.3333498 0.1667975 0.3333498 0.1667975 0.2777997 0.1111493 0.2777997 0.1111493 0.3333499 0.05559915 0.3333499 0.05559915 0.2777997 0.1111493 0.1111493 0.1111493 0.2777997 0.05559915 0.2777997 0.05559915 0.1111493 0.2224458 0.8888508 0.2335558 0.8888508 0.2335559 0.9444009 0.2224459 0.9444009 0.1667975 0.1111493 0.1667975 0.2777997 0.1112474 0.2777997 0.1112474 0.1111493 0.2224457 0.7222007 0.2335557 0.7222007 0.2335558 0.8888508 0.2224458 0.8888508 0.2224457 0.6666505 0.2335557 0.6666505 0.2335557 0.7222007 0.2224457 0.7222007 0.2224459 0.3333495 0.2224458 0.1666994 0.2335558 0.1666994 0.2335559 0.3333494 0.2224458 0.4444495 0.2224459 0.3333495 0.2335559 0.3333494 0.2335559 0.4444496 0.05559915 4.90262e-5 0.05559915 0.1111493 4.90262e-5 0.1111493 4.90262e-5 4.90392e-5 0.2335558 0.5555503 0.2335557 0.6666505 0.2224457 0.6666505 0.2224457 0.5555503 0.1667975 4.90384e-5 0.1667975 0.1111493 0.1112474 0.1111493 0.1112474 4.90358e-5 0.2223477 4.90262e-5 0.2223476 0.1111493 0.1667975 0.1111493 0.1667975 4.90384e-5 0.1111493 4.9028e-5 0.1111493 0.1111493 0.05559915 0.1111493 0.05559915 4.90262e-5</float_array>
          <technique_common>
            <accessor source="#Cube_006-mesh-map-0-array" count="88" stride="2">
              <param name="S" type="float"/>
              <param name="T" type="float"/>
            </accessor>
          </technique_common>
        </source>
        <vertices id="Cube_006-mesh-vertices">
          <input semantic="POSITION" source="#Cube_006-mesh-positions"/>
        </vertices>
        <polylist count="22">
          <input semantic="VERTEX" source="#Cube_006-mesh-vertices" offset="0"/>
          <input semantic="NORMAL" source="#Cube_006-mesh-normals" offset="1"/>
          <input semantic="TEXCOORD" source="#Cube_006-mesh-map-0" offset="2" set="0"/>
          <vcount>4 4 4 4 4 4 4 4 4 4 4 4 4 4 4 4 4 4 4 4 4 4 </vcount>
          <p>12 0 0 1 0 1 3 0 2 13 0 3 17 1 4 9 1 5 7 1 6 14 1 7 14 2 8 7 2 9 5 2 10 15 2 11 16 3 12 11 3 13 1 3 14 12 3 15 8 4 16 6 4 17 4 4 18 10 4 19 9 5 20 3 5 21 1 5 22 11 5 23 7 5 24 9 5 25 11 5 26 5 5 27 2 4 28 8 4 29 10 4 30 0 4 31 15 3 32 5 3 33 11 3 34 16 3 35 13 1 36 3 1 37 9 1 38 17 1 39 18 1 40 13 1 41 17 1 42 22 1 43 16 4 44 17 4 45 14 4 46 15 4 47 21 3 48 16 3 49 12 3 50 23 3 51 21 2 52 22 2 53 17 2 54 16 2 55 20 5 56 19 5 57 22 5 58 21 5 59 23 0 60 12 0 61 13 0 62 18 0 63 0 0 64 23 0 65 18 0 66 2 0 67 8 1 68 22 1 69 19 1 70 6 1 71 6 2 72 19 2 73 20 2 74 4 2 75 10 3 76 21 3 77 23 3 78 0 3 79 4 3 80 20 3 81 21 3 82 10 3 83 2 1 84 18 1 85 22 1 86 8 1 87</p>
        </polylist>
      </mesh>
    </geometry>
    <geometry id="Cube_005-mesh" name="Cube.005">
      <mesh>
        <source id="Cube_005-mesh-positions">
          <float_array id="Cube_005-mesh-positions-array" count="24">0 -0.04999995 0 0 -0.04999995 3.2 0 0.04999995 0 0 0.04999995 3.2 1 -0.04999995 0 1 -0.04999995 3.2 1 0.04999995 0 1 0.04999995 3.2</float_array>
          <technique_common>
            <accessor source="#Cube_005-mesh-positions-array" count="8" stride="3">
              <param name="X" type="float"/>
              <param name="Y" type="float"/>
              <param name="Z" type="float"/>
            </accessor>
          </technique_common>
        </source>
        <source id="Cube_005-mesh-normals">
          <float_array id="Cube_005-mesh-normals-array" count="18">-1 0 0 0 1 0 1 0 0 0 -1 0 0 0 -1 0 0 1</float_array>
          <technique_common>
            <accessor source="#Cube_005-mesh-normals-array" count="6" stride="3">
              <param name="X" type="float"/>
              <param name="Y" type="float"/>
              <param name="Z" type="float"/>
            </accessor>
          </technique_common>
        </source>
        <source id="Cube_005-mesh-map-0">
          <float_array id="Cube_005-mesh-map-0-array" count="48">0.4002479 0.4999976 0.4002479 0.2000343 0.4102467 0.2000343 0.4102467 0.4999976 0.2000354 5.8983e-5 0.2000354 0.3000237 5.8983e-5 0.3000237 5.8983e-5 5.901e-5 0.4102467 0.6999754 0.4102469 0.9999411 0.400248 0.9999411 0.4002478 0.6999754 0.4001299 5.8983e-5 0.4001299 0.3000237 0.2001534 0.3000237 0.2001534 5.90108e-5 0.4102467 0.4999976 0.4102467 0.6999754 0.4002478 0.6999754 0.4002479 0.4999976 0.4102469 5.8983e-5 0.4102467 0.2000343 0.4002479 0.2000343 0.4002482 5.8983e-5</float_array>
          <technique_common>
            <accessor source="#Cube_005-mesh-map-0-array" count="24" stride="2">
              <param name="S" type="float"/>
              <param name="T" type="float"/>
            </accessor>
          </technique_common>
        </source>
        <vertices id="Cube_005-mesh-vertices">
          <input semantic="POSITION" source="#Cube_005-mesh-positions"/>
        </vertices>
        <polylist count="6">
          <input semantic="VERTEX" source="#Cube_005-mesh-vertices" offset="0"/>
          <input semantic="NORMAL" source="#Cube_005-mesh-normals" offset="1"/>
          <input semantic="TEXCOORD" source="#Cube_005-mesh-map-0" offset="2" set="0"/>
          <vcount>4 4 4 4 4 4 </vcount>
          <p>0 0 0 1 0 1 3 0 2 2 0 3 2 1 4 3 1 5 7 1 6 6 1 7 6 2 8 7 2 9 5 2 10 4 2 11 4 3 12 5 3 13 1 3 14 0 3 15 2 4 16 6 4 17 4 4 18 0 4 19 7 5 20 3 5 21 1 5 22 5 5 23</p>
        </polylist>
      </mesh>
    </geometry>
    <geometry id="Cube_004-mesh" name="Cube.004">
      <mesh>
        <source id="Cube_004-mesh-positions">
          <float_array id="Cube_004-mesh-positions-array" count="72">0 -0.04999995 0 0 -0.04999995 3.2 0 0.04999995 0 0 0.04999995 3.2 4 -0.04999995 0 4 -0.04999995 3.2 4 0.04999995 0 4 0.04999995 3.2 1.5 0.04999995 0 1.5 0.04999995 3.2 2.5 -0.04999995 0 2.5 -0.04999995 3.2 2.5 0.04999995 3.2 1.5 -0.04999995 3.2 2.5 0.04999995 0 1.5 -0.04999995 0 4 0.04999995 2.4 4 -0.04999995 2.4 2.5 0.04999995 2.4 2.5 -0.04999995 2.4 0 -0.04999995 2.4 0 0.04999995 2.4 1.5 -0.04999995 2.4 1.5 0.04999995 2.4</float_array>
          <technique_common>
            <accessor source="#Cube_004-mesh-positions-array" count="24" stride="3">
              <param name="X" type="float"/>
              <param name="Y" type="float"/>
              <param name="Z" type="float"/>
            </accessor>
          </technique_common>
        </source>
        <source id="Cube_004-mesh-normals">
          <float_array id="Cube_004-mesh-normals-array" count="18">-1 0 0 0 1 0 1 0 0 0 -1 0 0 0 -1 0 0 1</float_array>
          <technique_common>
            <accessor source="#Cube_004-mesh-normals-array" count="6" stride="3">
              <param name="X" type="float"/>
              <param name="Y" type="float"/>
              <param name="Z" type="float"/>
            </accessor>
          </technique_common>
        </source>
        <source id="Cube_004-mesh-map-0">
          <float_array id="Cube_004-mesh-map-0-array" count="176">0.3246601 0.7552914 0.3246601 0.7872043 0.3193413 0.7872043 0.3193413 0.7552914 0.1276922 0.1489669 0.1596042 0.1489669 0.1596042 0.2127909 0.1276922 0.2127909 0.3193415 0.03195565 0.3193417 4.41419e-5 0.3246603 4.41949e-5 0.3246601 0.03195571 0.1916046 0.06386816 0.1596925 0.06386816 0.1596925 4.41501e-5 0.1916046 4.41419e-5 0.319341 0.2234237 0.3193411 0.1596019 0.3246597 0.159602 0.3246595 0.2234237 0.3193413 0.8510301 0.3193413 0.7872043 0.3246601 0.7872043 0.3246601 0.8510301 0.3193415 0.9999558 0.3193414 0.9361304 0.3246601 0.9361304 0.3246603 0.9999558 0.3193413 0.6276398 0.3193411 0.5638157 0.3246598 0.5638156 0.32466 0.6276398 0.1916046 0.2127909 0.1596925 0.2127909 0.1596925 0.1489669 0.1916046 0.1489669 0.1276922 4.41472e-5 0.1596043 4.41419e-5 0.1596043 0.06386816 0.1276922 0.06386816 0.3192526 0.2127909 0.1916046 0.2127909 0.1916046 0.1489669 0.3192526 0.1489669 0.3193411 0.1596019 0.3193415 0.03195565 0.3246601 0.03195571 0.3246597 0.159602 4.42214e-5 0.1489669 0.1276922 0.1489669 0.1276922 0.2127909 4.42214e-5 0.2127909 4.41419e-5 4.41481e-5 0.1276922 4.41472e-5 0.1276922 0.06386816 4.41419e-5 0.06386816 0.3192527 0.06386822 0.1916046 0.06386816 0.1916046 4.41419e-5 0.3192527 4.4163e-5 0.32466 0.6276398 0.3246601 0.7552914 0.3193413 0.7552914 0.3193413 0.6276398 0.1916046 0.06386816 0.1916046 0.1489669 0.1596925 0.1489669 0.1596925 0.06386816 0.3246601 0.8510301 0.3246601 0.9361304 0.3193414 0.9361304 0.3193413 0.8510301 0.1596043 0.06386816 0.1596042 0.1489669 0.1276922 0.1489669 0.1276922 0.06386816 0.3246598 0.5638156 0.3193411 0.5638157 0.319341 0.4361673 0.3246596 0.4361673 0.3246596 0.4361673 0.319341 0.4361673 0.319341 0.3510702 0.3246596 0.3510702 0.3246596 0.3510702 0.319341 0.3510702 0.319341 0.2234237 0.3246595 0.2234237</float_array>
          <technique_common>
            <accessor source="#Cube_004-mesh-map-0-array" count="88" stride="2">
              <param name="S" type="float"/>
              <param name="T" type="float"/>
            </accessor>
          </technique_common>
        </source>
        <vertices id="Cube_004-mesh-vertices">
          <input semantic="POSITION" source="#Cube_004-mesh-positions"/>
        </vertices>
        <polylist count="22">
          <input semantic="VERTEX" source="#Cube_004-mesh-vertices" offset="0"/>
          <input semantic="NORMAL" source="#Cube_004-mesh-normals" offset="1"/>
          <input semantic="TEXCOORD" source="#Cube_004-mesh-map-0" offset="2" set="0"/>
          <vcount>4 4 4 4 4 4 4 4 4 4 4 4 4 4 4 4 4 4 4 4 4 4 </vcount>
          <p>20 0 0 1 0 1 3 0 2 21 0 3 18 1 4 12 1 5 7 1 6 16 1 7 16 2 8 7 2 9 5 2 10 17 2 11 22 3 12 13 3 13 1 3 14 20 3 15 14 4 16 6 4 17 4 4 18 10 4 19 9 5 20 3 5 21 1 5 22 13 5 23 7 5 24 12 5 25 11 5 26 5 5 27 2 4 28 8 4 29 15 4 30 0 4 31 17 3 32 5 3 33 11 3 34 19 3 35 21 1 36 3 1 37 9 1 38 23 1 39 4 3 40 17 3 41 19 3 42 10 3 43 6 2 44 16 2 45 17 2 46 4 2 47 14 1 48 18 1 49 16 1 50 6 1 51 2 1 52 21 1 53 23 1 54 8 1 55 15 3 56 22 3 57 20 3 58 0 3 59 0 0 60 20 0 61 21 0 62 2 0 63 22 3 64 19 3 65 11 3 66 13 3 67 13 5 68 11 5 69 12 5 70 9 5 71 9 1 72 12 1 73 18 1 74 23 1 75 15 2 76 8 2 77 23 2 78 22 2 79 22 4 80 23 4 81 18 4 82 19 4 83 19 0 84 18 0 85 14 0 86 10 0 87</p>
        </polylist>
      </mesh>
    </geometry>
    <geometry id="Cube_003-mesh" name="Cube.003">
      <mesh>
        <source id="Cube_003-mesh-positions">
          <float_array id="Cube_003-mesh-positions-array" count="72">0 -0.04999995 0 0 -0.04999995 3.2 0 0.04999995 0 0 0.04999995 3.2 4 -0.04999995 0 4 -0.04999995 3.2 4 0.04999995 0 4 0.04999995 3.2 1.2 0.04999995 0 1.2 0.04999995 3.2 2.8 -0.04999995 0 2.8 -0.04999995 3.2 2.8 0.04999995 3.2 1.2 -0.04999995 3.2 2.8 0.04999995 0 1.2 -0.04999995 0 4 0.04999995 2.4 4 -0.04999995 2.4 2.8 0.04999995 2.4 2.8 -0.04999995 2.4 0 -0.04999995 2.4 0 0.04999995 2.4 1.2 -0.04999995 2.4 1.2 0.04999995 2.4</float_array>
          <technique_common>
            <accessor source="#Cube_003-mesh-positions-array" count="24" stride="3">
              <param name="X" type="float"/>
              <param name="Y" type="float"/>
              <param name="Z" type="float"/>
            </accessor>
          </technique_common>
        </source>
        <source id="Cube_003-mesh-normals">
          <float_array id="Cube_003-mesh-normals-array" count="18">-1 0 0 0 1 0 1 0 0 0 -1 0 0 0 -1 0 0 1</float_array>
          <technique_common>
            <accessor source="#Cube_003-mesh-normals-array" count="6" stride="3">
              <param name="X" type="float"/>
              <param name="Y" type="float"/>
              <param name="Z" type="float"/>
            </accessor>
          </technique_common>
        </source>
        <source id="Cube_003-mesh-map-0">
          <float_array id="Cube_003-mesh-map-0-array" count="176">0.3246601 0.7552914 0.3246601 0.7872043 0.3193413 0.7872043 0.3193413 0.7552914 0.1276922 0.1489669 0.1596042 0.1489669 0.1596042 0.2127909 0.1276922 0.2127909 0.3193415 0.03195565 0.3193417 4.41419e-5 0.3246603 4.41949e-5 0.3246601 0.03195571 0.1916046 0.06386816 0.1596925 0.06386816 0.1596925 4.41501e-5 0.1916046 4.41419e-5 0.319341 0.2234237 0.3193411 0.1596019 0.3246597 0.159602 0.3246595 0.2234237 0.3193413 0.8510301 0.3193413 0.7872043 0.3246601 0.7872043 0.3246601 0.8510301 0.3193415 0.9999558 0.3193414 0.9361304 0.3246601 0.9361304 0.3246603 0.9999558 0.3193413 0.6276398 0.3193411 0.5638157 0.3246598 0.5638156 0.32466 0.6276398 0.1916046 0.2127909 0.1596925 0.2127909 0.1596925 0.1489669 0.1916046 0.1489669 0.1276922 4.41472e-5 0.1596043 4.41419e-5 0.1596043 0.06386816 0.1276922 0.06386816 0.3192526 0.2127909 0.1916046 0.2127909 0.1916046 0.1489669 0.3192526 0.1489669 0.3193411 0.1596019 0.3193415 0.03195565 0.3246601 0.03195571 0.3246597 0.159602 4.42214e-5 0.1489669 0.1276922 0.1489669 0.1276922 0.2127909 4.42214e-5 0.2127909 4.41419e-5 4.41481e-5 0.1276922 4.41472e-5 0.1276922 0.06386816 4.41419e-5 0.06386816 0.3192527 0.06386822 0.1916046 0.06386816 0.1916046 4.41419e-5 0.3192527 4.4163e-5 0.32466 0.6276398 0.3246601 0.7552914 0.3193413 0.7552914 0.3193413 0.6276398 0.1916046 0.06386816 0.1916046 0.1489669 0.1596925 0.1489669 0.1596925 0.06386816 0.3246601 0.8510301 0.3246601 0.9361304 0.3193414 0.9361304 0.3193413 0.8510301 0.1596043 0.06386816 0.1596042 0.1489669 0.1276922 0.1489669 0.1276922 0.06386816 0.3246598 0.5638156 0.3193411 0.5638157 0.319341 0.4361673 0.3246596 0.4361673 0.3246596 0.4361673 0.319341 0.4361673 0.319341 0.3510702 0.3246596 0.3510702 0.3246596 0.3510702 0.319341 0.3510702 0.319341 0.2234237 0.3246595 0.2234237</float_array>
          <technique_common>
            <accessor source="#Cube_003-mesh-map-0-array" count="88" stride="2">
              <param name="S" type="float"/>
              <param name="T" type="float"/>
            </accessor>
          </technique_common>
        </source>
        <vertices id="Cube_003-mesh-vertices">
          <input semantic="POSITION" source="#Cube_003-mesh-positions"/>
        </vertices>
        <polylist count="22">
          <input semantic="VERTEX" source="#Cube_003-mesh-vertices" offset="0"/>
          <input semantic="NORMAL" source="#Cube_003-mesh-normals" offset="1"/>
          <input semantic="TEXCOORD" source="#Cube_003-mesh-map-0" offset="2" set="0"/>
          <vcount>4 4 4 4 4 4 4 4 4 4 4 4 4 4 4 4 4 4 4 4 4 4 </vcount>
          <p>20 0 0 1 0 1 3 0 2 21 0 3 18 1 4 12 1 5 7 1 6 16 1 7 16 2 8 7 2 9 5 2 10 17 2 11 22 3 12 13 3 13 1 3 14 20 3 15 14 4 16 6 4 17 4 4 18 10 4 19 9 5 20 3 5 21 1 5 22 13 5 23 7 5 24 12 5 25 11 5 26 5 5 27 2 4 28 8 4 29 15 4 30 0 4 31 17 3 32 5 3 33 11 3 34 19 3 35 21 1 36 3 1 37 9 1 38 23 1 39 4 3 40 17 3 41 19 3 42 10 3 43 6 2 44 16 2 45 17 2 46 4 2 47 14 1 48 18 1 49 16 1 50 6 1 51 2 1 52 21 1 53 23 1 54 8 1 55 15 3 56 22 3 57 20 3 58 0 3 59 0 0 60 20 0 61 21 0 62 2 0 63 22 3 64 19 3 65 11 3 66 13 3 67 13 5 68 11 5 69 12 5 70 9 5 71 9 1 72 12 1 73 18 1 74 23 1 75 15 2 76 8 2 77 23 2 78 22 2 79 22 4 80 23 4 81 18 4 82 19 4 83 19 0 84 18 0 85 14 0 86 10 0 87</p>
        </polylist>
      </mesh>
    </geometry>
    <geometry id="Cube_002-mesh" name="Cube.002">
      <mesh>
        <source id="Cube_002-mesh-positions">
          <float_array id="Cube_002-mesh-positions-array" count="48">-0.04999995 -0.04999995 0 -0.04999995 -0.04999995 3.2 -0.04999995 0.04999995 0 -0.04999995 0.04999995 3.2 0.04999995 -0.04999995 0 0.04999995 -0.04999995 3.2 0.04999995 0.04999995 0 0.04999995 0.04999995 3.2 1 0.04999995 3.2 1 0.04999995 0 1 -0.04999995 0 1 -0.04999995 3.2 -0.04999995 -1 0 -0.04999995 -1 3.2 0.04999995 -1 3.2 0.04999995 -1 0</float_array>
          <technique_common>
            <accessor source="#Cube_002-mesh-positions-array" count="16" stride="3">
              <param name="X" type="float"/>
              <param name="Y" type="float"/>
              <param name="Z" type="float"/>
            </accessor>
          </technique_common>
        </source>
        <source id="Cube_002-mesh-normals">
          <float_array id="Cube_002-mesh-normals-array" count="18">-1 0 0 0 1 0 0 0 1 0 0 -1 1 0 0 0 -1 0</float_array>
          <technique_common>
            <accessor source="#Cube_002-mesh-normals-array" count="6" stride="3">
              <param name="X" type="float"/>
              <param name="Y" type="float"/>
              <param name="Z" type="float"/>
            </accessor>
          </technique_common>
        </source>
        <source id="Cube_002-mesh-map-0">
          <float_array id="Cube_002-mesh-map-0-array" count="112">0.887582 0.4227684 0.887582 0.8450024 0.8735075 0.8450024 0.8735074 0.4227684 0.8735074 0.422412 0.8735074 1.77916e-4 0.887582 1.77916e-4 0.887582 0.422412 1.77916e-4 0.01425242 0.01425242 0.01425242 0.01425242 0.1549969 1.78053e-4 0.1549969 0.7324067 0.845003 0.7324067 0.4227684 0.8731516 0.4227684 0.8731516 0.845003 0.7320508 1.77959e-4 0.7320508 0.01425248 0.7179763 0.01425248 0.7179764 1.77959e-4 1.77916e-4 0.01425242 1.77916e-4 1.77924e-4 0.01425242 1.77924e-4 0.01425242 0.01425242 0.7320508 0.1549978 0.7320507 0.5772317 0.7179762 0.5772317 0.7179763 0.1549978 0.7324067 0.4224125 0.7324067 1.77916e-4 0.8731516 1.7795e-4 0.8731516 0.4224125 0.1412786 0.999822 0.1412787 0.5775875 0.2820236 0.5775875 0.2820236 0.9998221 0.7179763 0.01425248 0.7320508 0.01425248 0.7320508 0.1549978 0.7179763 0.1549978 0.577231 0.01425242 0.1549972 0.01425236 0.1549972 1.77933e-4 0.577231 1.77916e-4 0.7179764 1.77959e-4 0.7179763 0.01425248 0.577231 0.01425242 0.577231 1.77916e-4 0.01425242 0.01425242 0.01425242 1.77924e-4 0.1549972 1.77933e-4 0.1549972 0.01425236 1.77916e-4 0.999822 1.77988e-4 0.5775875 0.1409228 0.5775875 0.1409228 0.9998221</float_array>
          <technique_common>
            <accessor source="#Cube_002-mesh-map-0-array" count="56" stride="2">
              <param name="S" type="float"/>
              <param name="T" type="float"/>
            </accessor>
          </technique_common>
        </source>
        <vertices id="Cube_002-mesh-vertices">
          <input semantic="POSITION" source="#Cube_002-mesh-positions"/>
        </vertices>
        <polylist count="14">
          <input semantic="VERTEX" source="#Cube_002-mesh-vertices" offset="0"/>
          <input semantic="NORMAL" source="#Cube_002-mesh-normals" offset="1"/>
          <input semantic="TEXCOORD" source="#Cube_002-mesh-map-0" offset="2" set="0"/>
          <vcount>4 4 4 4 4 4 4 4 4 4 4 4 4 4 </vcount>
          <p>0 0 0 1 0 1 3 0 2 2 0 3 2 1 4 3 1 5 7 1 6 6 1 7 7 2 8 5 2 9 11 2 10 8 2 11 1 0 12 0 0 13 12 0 14 13 0 15 2 3 16 6 3 17 4 3 18 0 3 19 7 2 20 3 2 21 1 2 22 5 2 23 9 4 24 8 4 25 11 4 26 10 4 27 6 1 28 7 1 29 8 1 30 9 1 31 5 5 32 4 5 33 10 5 34 11 5 35 4 3 36 6 3 37 9 3 38 10 3 39 15 5 40 14 5 41 13 5 42 12 5 43 0 3 44 4 3 45 15 3 46 12 3 47 5 2 48 1 2 49 13 2 50 14 2 51 4 4 52 5 4 53 14 4 54 15 4 55</p>
        </polylist>
      </mesh>
    </geometry>
    <geometry id="Cube_001-mesh" name="Cube.001">
      <mesh>
        <source id="Cube_001-mesh-positions">
          <float_array id="Cube_001-mesh-positions-array" count="24">0 -0.04999995 0 0 -0.04999995 3.2 0 0.04999995 0 0 0.04999995 3.2 4 -0.04999995 0 4 -0.04999995 3.2 4 0.04999995 0 4 0.04999995 3.2</float_array>
          <technique_common>
            <accessor source="#Cube_001-mesh-positions-array" count="8" stride="3">
              <param name="X" type="float"/>
              <param name="Y" type="float"/>
              <param name="Z" type="float"/>
            </accessor>
          </technique_common>
        </source>
        <source id="Cube_001-mesh-normals">
          <float_array id="Cube_001-mesh-normals-array" count="18">-1 0 0 0 1 0 1 0 0 0 -1 0 0 0 -1 0 0 1</float_array>
          <technique_common>
            <accessor source="#Cube_001-mesh-normals-array" count="6" stride="3">
              <param name="X" type="float"/>
              <param name="Y" type="float"/>
              <param name="Z" type="float"/>
            </accessor>
          </technique_common>
        </source>
        <source id="Cube_001-mesh-map-0">
          <float_array id="Cube_001-mesh-map-0-array" count="48">0.5002297 0.4999889 0.5002295 0.2857326 0.5073714 0.2857326 0.5073716 0.4999889 0.2857377 5.79321e-5 0.2857377 0.2143177 5.7967e-5 0.2143178 5.79321e-5 5.79752e-5 0.5073715 0.7856767 0.5073719 0.9999421 0.5002297 0.9999421 0.5002292 0.7856767 0.5001134 0.2857377 0.2858536 0.2857377 0.2858536 5.79321e-5 0.5001134 5.79504e-5 0.5073716 0.4999889 0.5073715 0.7856767 0.5002292 0.7856767 0.5002297 0.4999889 0.5073719 5.7967e-5 0.5073714 0.2857326 0.5002295 0.2857326 0.5002304 5.79321e-5</float_array>
          <technique_common>
            <accessor source="#Cube_001-mesh-map-0-array" count="24" stride="2">
              <param name="S" type="float"/>
              <param name="T" type="float"/>
            </accessor>
          </technique_common>
        </source>
        <vertices id="Cube_001-mesh-vertices">
          <input semantic="POSITION" source="#Cube_001-mesh-positions"/>
        </vertices>
        <polylist count="6">
          <input semantic="VERTEX" source="#Cube_001-mesh-vertices" offset="0"/>
          <input semantic="NORMAL" source="#Cube_001-mesh-normals" offset="1"/>
          <input semantic="TEXCOORD" source="#Cube_001-mesh-map-0" offset="2" set="0"/>
          <vcount>4 4 4 4 4 4 </vcount>
          <p>0 0 0 1 0 1 3 0 2 2 0 3 2 1 4 3 1 5 7 1 6 6 1 7 6 2 8 7 2 9 5 2 10 4 2 11 4 3 12 5 3 13 1 3 14 0 3 15 2 4 16 6 4 17 4 4 18 0 4 19 7 5 20 3 5 21 1 5 22 5 5 23</p>
        </polylist>
      </mesh>
    </geometry>
    <geometry id="Cube-mesh" name="Cube">
      <mesh>
        <source id="Cube-mesh-positions">
          <float_array id="Cube-mesh-positions-array" count="24">0 -0.04999995 0 0 -0.04999995 3.2 0 0.04999995 0 0 0.04999995 3.2 2 -0.04999995 0 2 -0.04999995 3.2 2 0.04999995 0 2 0.04999995 3.2</float_array>
          <technique_common>
            <accessor source="#Cube-mesh-positions-array" count="8" stride="3">
              <param name="X" type="float"/>
              <param name="Y" type="float"/>
              <param name="Z" type="float"/>
            </accessor>
          </technique_common>
        </source>
        <source id="Cube-mesh-normals">
          <float_array id="Cube-mesh-normals-array" count="18">-1 0 0 0 1 0 1 0 0 0 -1 0 0 0 -1 0 0 1</float_array>
          <technique_common>
            <accessor source="#Cube-mesh-normals-array" count="6" stride="3">
              <param name="X" type="float"/>
              <param name="Y" type="float"/>
              <param name="Z" type="float"/>
            </accessor>
          </technique_common>
        </source>
        <source id="Cube-mesh-map-0">
          <float_array id="Cube-mesh-map-0-array" count="48">0.4002479 0.4999976 0.4002479 0.2000343 0.4102467 0.2000343 0.4102467 0.4999976 0.2000354 5.8983e-5 0.2000354 0.3000237 5.8983e-5 0.3000237 5.8983e-5 5.901e-5 0.4102467 0.6999754 0.4102469 0.9999411 0.400248 0.9999411 0.4002478 0.6999754 0.4001299 5.8983e-5 0.4001299 0.3000237 0.2001534 0.3000237 0.2001534 5.90108e-5 0.4102467 0.4999976 0.4102467 0.6999754 0.4002478 0.6999754 0.4002479 0.4999976 0.4102469 5.8983e-5 0.4102467 0.2000343 0.4002479 0.2000343 0.4002482 5.8983e-5</float_array>
          <technique_common>
            <accessor source="#Cube-mesh-map-0-array" count="24" stride="2">
              <param name="S" type="float"/>
              <param name="T" type="float"/>
            </accessor>
          </technique_common>
        </source>
        <vertices id="Cube-mesh-vertices">
          <input semantic="POSITION" source="#Cube-mesh-positions"/>
        </vertices>
        <polylist count="6">
          <input semantic="VERTEX" source="#Cube-mesh-vertices" offset="0"/>
          <input semantic="NORMAL" source="#Cube-mesh-normals" offset="1"/>
          <input semantic="TEXCOORD" source="#Cube-mesh-map-0" offset="2" set="0"/>
          <vcount>4 4 4 4 4 4 </vcount>
          <p>0 0 0 1 0 1 3 0 2 2 0 3 2 1 4 3 1 5 7 1 6 6 1 7 6 2 8 7 2 9 5 2 10 4 2 11 4 3 12 5 3 13 1 3 14 0 3 15 2 4 16 6 4 17 4 4 18 0 4 19 7 5 20 3 5 21 1 5 22 5 5 23</p>
        </polylist>
      </mesh>
    </geometry>
  </library_geometries>
  <library_controllers/>
  <library_visual_scenes>
    <visual_scene id="Scene" name="Scene">
      <node id="_x1_Floor_Quad" name="1x1 Floor Quad" type="NODE">
        <matrix sid="transform">1 0 0 0 0 1 0 0 0 0 1 0 0 0 0 1</matrix>
        <instance_geometry url="#Cube_012-mesh" name="1x1 Floor Quad"/>
      </node>
      <node id="_x4_Floor_Quad" name="4x4 Floor Quad" type="NODE">
        <matrix sid="transform">1 0 0 0 0 1 0 0 0 0 1 0 0 0 0 1</matrix>
        <instance_geometry url="#Cube_011-mesh" name="4x4 Floor Quad"/>
      </node>
      <node id="_x2_Floor_Quad" name="2x2 Floor Quad" type="NODE">
        <matrix sid="transform">1 0 0 0 0 1 0 0 0 0 1 0 0 0 0 1</matrix>
        <instance_geometry url="#Cube_010-mesh" name="2x2 Floor Quad"/>
      </node>
      <node id="Stairs_Half_Flight" name="Stairs Half Flight" type="NODE">
        <matrix sid="transform">1 0 0 0 0 1 0 0 0 0 1 0 0 0 0 1</matrix>
        <instance_geometry url="#Cube_009-mesh" name="Stairs Half Flight"/>
      </node>
      <node id="_M_Window_Type_1_End" name="1M Window Type 1 End" type="NODE">
        <matrix sid="transform">1 0 0 0 0 1 0 0 0 0 1 0 0 0 0 1</matrix>
        <instance_geometry url="#Cube_008-mesh" name="1M Window Type 1 End"/>
      </node>
      <node id="_M_Window_Type_1_Middle" name="1M Window Type 1 Middle" type="NODE">
        <matrix sid="transform">1 0 0 0 0 1 0 0 0 0 1 0 0 0 0 1</matrix>
        <instance_geometry url="#Cube_007-mesh" name="1M Window Type 1 Middle"/>
      </node>
      <node id="_M_Window_Type_1_Start" name="1M Window Type 1 Start" type="NODE">
        <matrix sid="transform">1 0 0 0 0 1 0 0 0 0 1 0 0 0 0 1</matrix>
        <instance_geometry url="#Cube_006-mesh" name="1M Window Type 1 Start"/>
      </node>
      <node id="_M_Wall" name="1M Wall" type="NODE">
        <matrix sid="transform">1 0 0 0 0 1 0 0 0 0 1 0 0 0 0 1</matrix>
        <instance_geometry url="#Cube_005-mesh" name="1M Wall"/>
      </node>
      <node id="Wall_With_Wide_Door_001" name="Wall With Wide Door.001" type="NODE">
        <matrix sid="transform">1 0 0 0 0 1 0 0 0 0 1 0 0 0 0 1</matrix>
        <instance_geometry url="#Cube_004-mesh" name="Wall With Wide Door.001"/>
      </node>
      <node id="Wall_With_Wide_Door" name="Wall With Wide Door" type="NODE">
        <matrix sid="transform">1 0 0 0 0 1 0 0 0 0 1 0 0 0 0 1</matrix>
        <instance_geometry url="#Cube_003-mesh" name="Wall With Wide Door"/>
      </node>
      <node id="_m_Wall_Corner" name="1m Wall Corner" type="NODE">
        <matrix sid="transform">1 0 0 0 0 1 0 0 0 0 1 0 0 0 0 1</matrix>
        <instance_geometry url="#Cube_002-mesh" name="1m Wall Corner"/>
      </node>
      <node id="_m_Wall" name="4m Wall" type="NODE">
        <matrix sid="transform">1 0 0 0 0 1 0 0 0 0 1 0 0 0 0 1</matrix>
        <instance_geometry url="#Cube_001-mesh" name="4m Wall"/>
      </node>
      <node id="_M_Wall2" name="2M Wall" type="NODE">
        <matrix sid="transform">1 0 0 0 0 1 0 0 0 0 1 0 0 0 0 1</matrix>
        <instance_geometry url="#Cube-mesh" name="2M Wall"/>
      </node>
    </visual_scene>
  </library_visual_scenes>
  <scene>
    <instance_visual_scene url="#Scene"/>
  </scene>
</COLLADA>